<?xml version="1.0" encoding="UTF-8" standalone="no"?>
<!-- Created with Inkscape (http://www.inkscape.org/) -->

<svg
   xmlns:dc="http://purl.org/dc/elements/1.1/"
   xmlns:cc="http://creativecommons.org/ns#"
   xmlns:rdf="http://www.w3.org/1999/02/22-rdf-syntax-ns#"
   xmlns:svg="http://www.w3.org/2000/svg"
   xmlns="http://www.w3.org/2000/svg"
   xmlns:sodipodi="http://sodipodi.sourceforge.net/DTD/sodipodi-0.dtd"
   xmlns:inkscape="http://www.inkscape.org/namespaces/inkscape"
   width="128mm"
   height="128mm"
   viewBox="0 0 128 128"
   version="1.1"
   id="svg8"
   inkscape:version="0.92+devel unknown"
   sodipodi:docname="copy.svg">
  <defs
     id="defs2">
    <filter
       inkscape:collect="always"
       style="color-interpolation-filters:sRGB"
       id="filter4315"
       x="-0.025540685"
       width="1.0510814"
       y="-0.022586652"
       height="1.0451733">
      <feGaussianBlur
         inkscape:collect="always"
         stdDeviation="0.72478562"
         id="feGaussianBlur4317" />
    </filter>
  </defs>
  <sodipodi:namedview
     id="base"
     pagecolor="#ffffff"
     bordercolor="#666666"
     borderopacity="1.0"
     inkscape:pageopacity="0.0"
     inkscape:pageshadow="2"
     inkscape:zoom="0.55540253"
     inkscape:cx="575.46616"
     inkscape:cy="207.72677"
     inkscape:document-units="mm"
     inkscape:current-layer="layer1"
     inkscape:document-rotation="0"
     showgrid="false"
     inkscape:window-width="1920"
     inkscape:window-height="929"
     inkscape:window-x="0"
     inkscape:window-y="0"
     inkscape:window-maximized="1"
     inkscape:snap-global="false" />
  <metadata
     id="metadata5">
    <rdf:RDF>
      <cc:Work
         rdf:about="">
        <dc:format>image/svg+xml</dc:format>
        <dc:type
           rdf:resource="http://purl.org/dc/dcmitype/StillImage" />
        <dc:title />
      </cc:Work>
    </rdf:RDF>
  </metadata>
  <g
     inkscape:label="Layer 1"
     inkscape:groupmode="layer"
     id="layer1"
     transform="translate(0,-169)">
    <g
       id="g4374"
       inkscape:label="stranka"
       transform="matrix(1.1076305,0,0,1.0590783,-31.778177,-23.543384)"
       style="display:inline">
      <path
         inkscape:label="tien"
         sodipodi:nodetypes="ccccc"
         inkscape:connector-curvature="0"
         id="path4350"
         d="m 40.738151,211.17405 c 4.829121,0 68.106459,0.10562 68.106459,0.10562 v 76.90825 H 40.738151 Z"
         style="fill:#0756d1;fill-opacity:1;stroke:none;stroke-width:0.67800033;stroke-miterlimit:4;stroke-dasharray:none;stroke-opacity:1;filter:url(#filter4315)"
         transform="matrix(0.95448919,0,0,0.77540623,1.7216416,43.639823)" />
      <path
         style="display:inline;fill:#ffffff;fill-opacity:1;stroke:#258ede;stroke-width:2.32801008;stroke-miterlimit:4;stroke-dasharray:none;stroke-opacity:1"
         d="m 36.643117,189.57553 h 52.773747 c 5.810495,8.26296 8.98304,11.81008 14.568136,15.86027 v 59.21786 H 36.643117 Z"
         id="path4352"
         inkscape:connector-curvature="0"
         sodipodi:nodetypes="cccccc"
         inkscape:label="papier" />
      <g
         id="g4370"
         inkscape:label="linajky"
         style="display:inline">
        <rect
           style="display:inline;fill:#f2f5f8;fill-opacity:1;stroke:#258ede;stroke-width:0.66499996;stroke-miterlimit:4;stroke-dasharray:none;stroke-opacity:1"
           id="rect4354"
           width="57.609367"
           height="0.42408624"
           x="41.99456"
           y="214.03262" />
        <rect
           y="222.69023"
           x="41.99456"
           height="0.42408624"
           width="57.609367"
           id="rect4356"
           style="fill:#f2f5f8;fill-opacity:1;stroke:#258ede;stroke-width:0.66499996;stroke-miterlimit:4;stroke-dasharray:none;stroke-opacity:1" />
        <rect
           style="fill:#f2f5f8;fill-opacity:1;stroke:#258ede;stroke-width:0.66499996;stroke-miterlimit:4;stroke-dasharray:none;stroke-opacity:1"
           id="rect4358"
           width="57.609367"
           height="0.42408624"
           x="41.99456"
           y="231.34784" />
        <rect
           y="240.00546"
           x="41.99456"
           height="0.42408624"
           width="57.609367"
           id="rect4360"
           style="fill:#f2f5f8;fill-opacity:1;stroke:#258ede;stroke-width:0.66499996;stroke-miterlimit:4;stroke-dasharray:none;stroke-opacity:1" />
        <rect
           style="fill:#f2f5f8;fill-opacity:1;stroke:#258ede;stroke-width:0.66499996;stroke-miterlimit:4;stroke-dasharray:none;stroke-opacity:1"
           id="rect4362"
           width="57.609367"
           height="0.42408624"
           x="41.99456"
           y="248.66307" />
        <rect
           y="257.32068"
           x="41.99456"
           height="0.42408624"
           width="57.609367"
           id="rect4364"
           style="fill:#f2f5f8;fill-opacity:1;stroke:#258ede;stroke-width:0.66499996;stroke-miterlimit:4;stroke-dasharray:none;stroke-opacity:1" />
        <rect
           y="205.37502"
           x="41.99456"
           height="0.42408624"
           width="57.609367"
           id="rect4366"
           style="fill:#f2f5f8;fill-opacity:1;stroke:#258ede;stroke-width:0.66499996;stroke-miterlimit:4;stroke-dasharray:none;stroke-opacity:1" />
        <rect
           style="fill:#f2f5f8;fill-opacity:1;stroke:#258ede;stroke-width:0.66499996;stroke-miterlimit:4;stroke-dasharray:none;stroke-opacity:1"
           id="rect4368"
           width="50.978436"
           height="0.42408752"
           x="41.99456"
           y="196.71741" />
      </g>
      <path
         inkscape:label="roztek"
         sodipodi:nodetypes="cccccc"
         inkscape:connector-curvature="0"
         id="path4372"
         d="m 90.649638,191.02159 10.877602,11.98103 c 1.81334,2.08569 2.97797,1.89103 0.41162,2.39459 -5.312788,0.90226 -9.481783,0.51337 -13.106233,-0.49021 1.417959,-3.14012 1.248817,-7.82753 0.509479,-13.07083 -0.276282,-2.46647 -1.334381,-4.2299 1.307532,-0.81458 z"
         style="display:inline;fill:#dbf2ff;fill-opacity:1;stroke:#258ede;stroke-width:2.32801008;stroke-miterlimit:4;stroke-dasharray:none;stroke-opacity:1" />
    </g>
    <g
       style="display:inline"
       transform="matrix(1.1076305,0,0,1.0590783,7.7599376,12.183027)"
       inkscape:label="stranka"
       id="g4426">
      <path
         transform="matrix(0.95448919,0,0,0.77540623,1.7216416,43.639823)"
         style="fill:#0756d1;fill-opacity:1;stroke:none;stroke-width:0.67800033;stroke-miterlimit:4;stroke-dasharray:none;stroke-opacity:1;filter:url(#filter4315)"
         d="m 40.738151,211.17405 c 4.829121,0 68.106459,0.10562 68.106459,0.10562 v 76.90825 H 40.738151 Z"
         id="path4402"
         inkscape:connector-curvature="0"
         sodipodi:nodetypes="ccccc"
         inkscape:label="tien" />
      <path
         inkscape:label="papier"
         sodipodi:nodetypes="cccccc"
         inkscape:connector-curvature="0"
         id="path4404"
         d="m 36.643117,189.57553 h 52.773747 c 5.810495,8.26296 8.98304,11.81008 14.568136,15.86027 v 59.21786 H 36.643117 Z"
         style="display:inline;fill:#ffffff;fill-opacity:1;stroke:#258ede;stroke-width:2.32801008;stroke-miterlimit:4;stroke-dasharray:none;stroke-opacity:1" />
      <g
         style="display:inline"
         inkscape:label="linajky"
         id="g4422">
        <rect
           y="214.03262"
           x="41.99456"
           height="0.42408624"
           width="57.609367"
           id="rect4406"
           style="display:inline;fill:#f2f5f8;fill-opacity:1;stroke:#258ede;stroke-width:0.66499996;stroke-miterlimit:4;stroke-dasharray:none;stroke-opacity:1" />
        <rect
           style="fill:#f2f5f8;fill-opacity:1;stroke:#258ede;stroke-width:0.66499996;stroke-miterlimit:4;stroke-dasharray:none;stroke-opacity:1"
           id="rect4408"
           width="57.609367"
           height="0.42408624"
           x="41.99456"
           y="222.69023" />
        <rect
           y="231.34784"
           x="41.99456"
           height="0.42408624"
           width="57.609367"
           id="rect4410"
           style="fill:#f2f5f8;fill-opacity:1;stroke:#258ede;stroke-width:0.66499996;stroke-miterlimit:4;stroke-dasharray:none;stroke-opacity:1" />
        <rect
           style="fill:#f2f5f8;fill-opacity:1;stroke:#258ede;stroke-width:0.66499996;stroke-miterlimit:4;stroke-dasharray:none;stroke-opacity:1"
           id="rect4412"
           width="57.609367"
           height="0.42408624"
           x="41.99456"
           y="240.00546" />
        <rect
           y="248.66307"
           x="41.99456"
           height="0.42408624"
           width="57.609367"
           id="rect4414"
           style="fill:#f2f5f8;fill-opacity:1;stroke:#258ede;stroke-width:0.66499996;stroke-miterlimit:4;stroke-dasharray:none;stroke-opacity:1" />
        <rect
           style="fill:#f2f5f8;fill-opacity:1;stroke:#258ede;stroke-width:0.66499996;stroke-miterlimit:4;stroke-dasharray:none;stroke-opacity:1"
           id="rect4416"
           width="57.609367"
           height="0.42408624"
           x="41.99456"
           y="257.32068" />
        <rect
           style="fill:#f2f5f8;fill-opacity:1;stroke:#258ede;stroke-width:0.66499996;stroke-miterlimit:4;stroke-dasharray:none;stroke-opacity:1"
           id="rect4418"
           width="57.609367"
           height="0.42408624"
           x="41.99456"
           y="205.37502" />
        <rect
           y="196.71741"
           x="41.99456"
           height="0.42408752"
           width="50.978436"
           id="rect4420"
           style="fill:#f2f5f8;fill-opacity:1;stroke:#258ede;stroke-width:0.66499996;stroke-miterlimit:4;stroke-dasharray:none;stroke-opacity:1" />
      </g>
      <path
         style="display:inline;fill:#dbf2ff;fill-opacity:1;stroke:#258ede;stroke-width:2.32801008;stroke-miterlimit:4;stroke-dasharray:none;stroke-opacity:1"
         d="m 90.649638,191.02159 10.877602,11.98103 c 1.81334,2.08569 2.97797,1.89103 0.41162,2.39459 -5.312788,0.90226 -9.481783,0.51337 -13.106233,-0.49021 1.417959,-3.14012 1.248817,-7.82753 0.509479,-13.07083 -0.276282,-2.46647 -1.334381,-4.2299 1.307532,-0.81458 z"
         id="path4424"
         inkscape:connector-curvature="0"
         sodipodi:nodetypes="cccccc"
         inkscape:label="roztek" />
    </g>
  </g>
</svg>
