<?xml version="1.0" encoding="UTF-8" standalone="no"?>
<!-- Created with Inkscape (http://www.inkscape.org/) -->

<svg
   xmlns:dc="http://purl.org/dc/elements/1.1/"
   xmlns:cc="http://creativecommons.org/ns#"
   xmlns:rdf="http://www.w3.org/1999/02/22-rdf-syntax-ns#"
   xmlns:svg="http://www.w3.org/2000/svg"
   xmlns="http://www.w3.org/2000/svg"
   xmlns:xlink="http://www.w3.org/1999/xlink"
   xmlns:sodipodi="http://sodipodi.sourceforge.net/DTD/sodipodi-0.dtd"
   xmlns:inkscape="http://www.inkscape.org/namespaces/inkscape"
   width="512"
   height="512"
   viewBox="0 0 135.46666 135.46666"
   version="1.1"
   id="svg8"
   inkscape:version="0.92.4 (unknown)"
   sodipodi:docname="find.svg">
  <defs
     id="defs2">
    <linearGradient
       inkscape:collect="always"
       id="linearGradient1294">
      <stop
         style="stop-color:#7f3300;stop-opacity:1;"
         offset="0"
         id="stop1290" />
      <stop
         style="stop-color:#000000;stop-opacity:0.98775512"
         offset="1"
         id="stop1292" />
    </linearGradient>
    <linearGradient
       inkscape:collect="always"
       id="linearGradient1228">
      <stop
         style="stop-color:#0400fc;stop-opacity:1;"
         offset="0"
         id="stop1224" />
      <stop
         id="stop1240"
         offset="0.8130883"
         style="stop-color:#010041;stop-opacity:1" />
      <stop
         style="stop-color:#5e5bff;stop-opacity:1"
         offset="0.90294552"
         id="stop1242" />
      <stop
         style="stop-color:#030072;stop-opacity:1"
         offset="1"
         id="stop1226" />
    </linearGradient>
    <radialGradient
       inkscape:collect="always"
       xlink:href="#linearGradient1228"
       id="radialGradient1230"
       cx="-39.662796"
       cy="152.19339"
       fx="-39.662796"
       fy="152.19339"
       r="35.486544"
       gradientUnits="userSpaceOnUse"
       gradientTransform="matrix(1.2188882,0.00333321,-0.00444395,0.89411098,-3.9110942,80.401418)" />
    <linearGradient
       inkscape:collect="always"
       xlink:href="#linearGradient1294"
       id="linearGradient1296"
       x1="85.312431"
       y1="254.34381"
       x2="87.640671"
       y2="277.37222"
       gradientUnits="userSpaceOnUse"
       gradientTransform="matrix(1.1892438,-0.03702082,0.03702082,1.1892438,-8.1835144,-38.412527)" />
    <filter
       inkscape:collect="always"
       style="color-interpolation-filters:sRGB"
       id="filter1542"
       x="-0.14228275"
       width="1.2845655"
       y="-0.49268065"
       height="1.9853613">
      <feGaussianBlur
         inkscape:collect="always"
         stdDeviation="3.6390792"
         id="feGaussianBlur1544" />
    </filter>
  </defs>
  <sodipodi:namedview
     id="base"
     pagecolor="#ffffff"
     bordercolor="#666666"
     borderopacity="1.0"
     inkscape:pageopacity="0.0"
     inkscape:pageshadow="2"
     inkscape:zoom="0.25"
     inkscape:cx="361.9989"
     inkscape:cy="307.41651"
     inkscape:document-units="mm"
     inkscape:current-layer="layer1"
     showgrid="false"
     units="px"
     inkscape:window-width="1192"
     inkscape:window-height="774"
     inkscape:window-x="2181"
     inkscape:window-y="128"
     inkscape:window-maximized="0"
     inkscape:snap-global="false" />
  <metadata
     id="metadata5">
    <rdf:RDF>
      <cc:Work
         rdf:about="">
        <dc:format>image/svg+xml</dc:format>
        <dc:type
           rdf:resource="http://purl.org/dc/dcmitype/StillImage" />
        <dc:title></dc:title>
      </cc:Work>
    </rdf:RDF>
  </metadata>
  <g
     inkscape:label="Vrstva 1"
     inkscape:groupmode="layer"
     id="layer1"
     transform="translate(0,-161.53336)">
    <g
       id="g1622">
      <ellipse
         transform="matrix(0.94711702,0,0,0.94711702,6.5763517,15.846297)"
         ry="8.8635406"
         rx="30.691668"
         cy="282.05106"
         cx="84.931244"
         id="path1460"
         style="opacity:0.68300003;fill:#333333;fill-opacity:0.98775509;stroke:none;stroke-width:6.07089901;stroke-miterlimit:4;stroke-dasharray:none;stroke-opacity:1;filter:url(#filter1542)" />
      <path
         sodipodi:nodetypes="ccccc"
         inkscape:connector-curvature="0"
         id="rect1251"
         d="m 71.268501,243.599 18.212932,-12.91113 30.489417,47.83495 c -0.40495,8.2979 -5.24316,11.17737 -13.6597,9.68333 z"
         style="opacity:1;fill:url(#linearGradient1296);fill-opacity:1;stroke:none;stroke-width:4.69013643;stroke-miterlimit:4;stroke-dasharray:none;stroke-opacity:1" />
      <ellipse
         style="fill:#e7e7e7;fill-opacity:1;stroke:none;stroke-width:6.86699247;stroke-miterlimit:4;stroke-dasharray:none;stroke-opacity:1"
         id="ellipse1298"
         cy="216.34697"
         cx="-52.931965"
         rx="38.789097"
         ry="28.772018"
         transform="rotate(-30.10575)" />
      <ellipse
         transform="rotate(-30.10575)"
         ry="28.772018"
         rx="38.789097"
         cx="-52.931965"
         cy="216.34697"
         id="path1222"
         style="fill:none;fill-opacity:1;stroke:url(#radialGradient1230);stroke-width:9.44419575;stroke-miterlimit:4;stroke-dasharray:none;stroke-opacity:1" />
      <ellipse
         inkscape:transform-center-y="0.74835464"
         inkscape:transform-center-x="0.37417732"
         transform="matrix(0.9198471,-0.39227709,0.69698724,0.71708353,0,0)"
         ry="7.7034316"
         rx="12.742603"
         cx="-94.106247"
         cy="223.44295"
         id="ellipse1300"
         style="fill:#ffffff;fill-opacity:1;stroke:none;stroke-width:2.03656244;stroke-miterlimit:4;stroke-dasharray:none;stroke-opacity:1" />
    </g>
  </g>
</svg>
